simulation/qsim/genius.msim.vcd
$comment
	File created using the following command:
		vcd file genius.msim.vcd -direction
$end
$date
	Wed Jul 11 03:11:40 2018
$end
$version
	ModelSim Version 10.1d
$end
$timescale
	1ps
$end
$scope module genius_vlg_vec_tst $end
$var reg 1 ! button_0 $end
$var reg 1 " button_1 $end
$var reg 1 # button_2 $end
$var reg 1 $ button_3 $end
$var reg 1 % clk $end
$var reg 2 & dif [1:0] $end
$var reg 1 ' rst $end
$var reg 7 ( seed [6:0] $end
$var wire 1 ) led0 $end
$var wire 1 * led1 $end
$var wire 1 + led2 $end
$var wire 1 , led3 $end
$var wire 1 - score [4] $end
$var wire 1 . score [3] $end
$var wire 1 / score [2] $end
$var wire 1 0 score [1] $end
$var wire 1 1 score [0] $end
$var wire 1 2 sampler $end
$scope module i1 $end
$var wire 1 3 gnd $end
$var wire 1 4 vcc $end
$var wire 1 5 unknown $end
$var tri1 1 6 devclrn $end
$var tri1 1 7 devpor $end
$var tri1 1 8 devoe $end
$var wire 1 9 led0~output_o $end
$var wire 1 : led1~output_o $end
$var wire 1 ; led2~output_o $end
$var wire 1 < led3~output_o $end
$var wire 1 = score[4]~output_o $end
$var wire 1 > score[3]~output_o $end
$var wire 1 ? score[2]~output_o $end
$var wire 1 @ score[1]~output_o $end
$var wire 1 A score[0]~output_o $end
$var wire 1 B clk~input_o $end
$var wire 1 C clk~inputclkctrl_outclk $end
$var wire 1 D rst~input_o $end
$var wire 1 E rst~inputclkctrl_outclk $end
$var wire 1 F inst|state.cpu2~q $end
$var wire 1 G inst|state.cpu3~q $end
$var wire 1 H inst|Add0~1_combout $end
$var wire 1 I inst|state.init~feeder_combout $end
$var wire 1 J inst|state.init~q $end
$var wire 1 K button_1~input_o $end
$var wire 1 L inst|old_button1~q $end
$var wire 1 M inst|process_0~3_combout $end
$var wire 1 N button_0~input_o $end
$var wire 1 O inst|old_button0~q $end
$var wire 1 P inst|process_0~0_combout $end
$var wire 1 Q inst|Selector15~0_combout $end
$var wire 1 R inst|Selector11~0_combout $end
$var wire 1 S inst|WideOr4~0_combout $end
$var wire 1 T inst|r_s_addr[0]~0_combout $end
$var wire 1 U inst|Selector12~0_combout $end
$var wire 1 V inst|Selector15~1_combout $end
$var wire 1 W inst|count[1]~10_combout $end
$var wire 1 X inst|Add0~0_combout $end
$var wire 1 Y inst|count[2]~11_combout $end
$var wire 1 Z inst|Equal3~1_combout $end
$var wire 1 [ inst|Selector17~0_combout $end
$var wire 1 \ inst|Selector17~1_combout $end
$var wire 1 ] inst|r_l_sync_reset~q $end
$var wire 1 ^ seed[3]~input_o $end
$var wire 1 _ inst2|r_lfsr~7_combout $end
$var wire 1 ` inst|Selector18~0_combout $end
$var wire 1 a inst|r_l_en~q $end
$var wire 1 b inst2|r_lfsr[5]~1_combout $end
$var wire 1 c seed[2]~input_o $end
$var wire 1 d inst2|r_lfsr~6_combout $end
$var wire 1 e seed[1]~input_o $end
$var wire 1 f inst2|r_lfsr~5_combout $end
$var wire 1 g seed[0]~input_o $end
$var wire 1 h inst2|r_lfsr~3_combout $end
$var wire 1 i seed[6]~input_o $end
$var wire 1 j inst2|r_lfsr~4_combout $end
$var wire 1 k seed[5]~input_o $end
$var wire 1 l inst2|r_lfsr~2_combout $end
$var wire 1 m seed[4]~input_o $end
$var wire 1 n inst2|r_lfsr~0_combout $end
$var wire 1 o inst1|ram~193_combout $end
$var wire 1 p inst|Selector16~0_combout $end
$var wire 1 q inst|Selector16~1_combout $end
$var wire 1 r inst|r_s_we~q $end
$var wire 1 s inst|Selector13~0_combout $end
$var wire 1 t inst|Selector14~0_combout $end
$var wire 1 u inst1|ram~144_combout $end
$var wire 1 v inst1|ram~161_combout $end
$var wire 1 w inst1|ram~38_q $end
$var wire 1 x inst1|ram~190_combout $end
$var wire 1 y inst1|ram~128_combout $end
$var wire 1 z inst1|ram~158_combout $end
$var wire 1 { inst1|ram~34_q $end
$var wire 1 | inst1|ram~191_combout $end
$var wire 1 } inst1|ram~120_combout $end
$var wire 1 ~ inst1|ram~159_combout $end
$var wire 1 !! inst1|ram~36_q $end
$var wire 1 "! inst1|ram~192_combout $end
$var wire 1 #! inst1|ram~136_combout $end
$var wire 1 $! inst1|ram~160_combout $end
$var wire 1 %! inst1|ram~32_q $end
$var wire 1 &! inst1|ram~89_combout $end
$var wire 1 '! inst1|ram~90_combout $end
$var wire 1 (! inst1|ram~178_combout $end
$var wire 1 )! inst1|ram~116_combout $end
$var wire 1 *! inst1|ram~146_combout $end
$var wire 1 +! inst1|ram~28_q $end
$var wire 1 ,! inst1|ram~181_combout $end
$var wire 1 -! inst1|ram~138_combout $end
$var wire 1 .! inst1|ram~149_combout $end
$var wire 1 /! inst1|ram~30_q $end
$var wire 1 0! inst1|ram~180_combout $end
$var wire 1 1! inst1|ram~132_combout $end
$var wire 1 2! inst1|ram~148_combout $end
$var wire 1 3! inst1|ram~24_q $end
$var wire 1 4! inst1|ram~179_combout $end
$var wire 1 5! inst1|ram~122_combout $end
$var wire 1 6! inst1|ram~147_combout $end
$var wire 1 7! inst1|ram~26_q $end
$var wire 1 8! inst1|ram~82_combout $end
$var wire 1 9! inst1|ram~83_combout $end
$var wire 1 :! inst1|ram~182_combout $end
$var wire 1 ;! inst1|ram~124_combout $end
$var wire 1 <! inst1|ram~150_combout $end
$var wire 1 =! inst1|ram~18_q $end
$var wire 1 >! inst1|ram~185_combout $end
$var wire 1 ?! inst1|ram~140_combout $end
$var wire 1 @! inst1|ram~153_combout $end
$var wire 1 A! inst1|ram~22_q $end
$var wire 1 B! inst1|ram~183_combout $end
$var wire 1 C! inst1|ram~114_combout $end
$var wire 1 D! inst1|ram~151_combout $end
$var wire 1 E! inst1|ram~20_q $end
$var wire 1 F! inst1|ram~184_combout $end
$var wire 1 G! inst1|ram~130_combout $end
$var wire 1 H! inst1|ram~152_combout $end
$var wire 1 I! inst1|ram~16_q $end
$var wire 1 J! inst1|ram~84_combout $end
$var wire 1 K! inst1|ram~85_combout $end
$var wire 1 L! inst1|ram~186_combout $end
$var wire 1 M! inst1|ram~118_combout $end
$var wire 1 N! inst1|ram~154_combout $end
$var wire 1 O! inst1|ram~12_q $end
$var wire 1 P! inst1|ram~189_combout $end
$var wire 1 Q! inst1|ram~142_combout $end
$var wire 1 R! inst1|ram~157_combout $end
$var wire 1 S! inst1|ram~14_q $end
$var wire 1 T! inst1|ram~188_combout $end
$var wire 1 U! inst1|ram~134_combout $end
$var wire 1 V! inst1|ram~156_combout $end
$var wire 1 W! inst1|ram~8_q $end
$var wire 1 X! inst1|ram~187_combout $end
$var wire 1 Y! inst1|ram~126_combout $end
$var wire 1 Z! inst1|ram~155_combout $end
$var wire 1 [! inst1|ram~10_q $end
$var wire 1 \! inst1|ram~86_combout $end
$var wire 1 ]! inst1|ram~87_combout $end
$var wire 1 ^! inst1|ram~88_combout $end
$var wire 1 _! inst1|ram~91_combout $end
$var wire 1 `! inst1|ram~162_combout $end
$var wire 1 a! inst1|ram~115_combout $end
$var wire 1 b! inst1|ram~52_q $end
$var wire 1 c! inst1|ram~165_combout $end
$var wire 1 d! inst1|ram~121_combout $end
$var wire 1 e! inst1|ram~68_q $end
$var wire 1 f! inst1|ram~163_combout $end
$var wire 1 g! inst1|ram~117_combout $end
$var wire 1 h! inst1|ram~60_q $end
$var wire 1 i! inst1|ram~164_combout $end
$var wire 1 j! inst1|ram~119_combout $end
$var wire 1 k! inst1|ram~44_q $end
$var wire 1 l! inst1|ram~72_combout $end
$var wire 1 m! inst1|ram~73_combout $end
$var wire 1 n! inst1|ram~177_combout $end
$var wire 1 o! inst1|ram~145_combout $end
$var wire 1 p! inst1|ram~70_q $end
$var wire 1 q! inst1|ram~174_combout $end
$var wire 1 r! inst1|ram~139_combout $end
$var wire 1 s! inst1|ram~62_q $end
$var wire 1 t! inst1|ram~175_combout $end
$var wire 1 u! inst1|ram~141_combout $end
$var wire 1 v! inst1|ram~54_q $end
$var wire 1 w! inst1|ram~176_combout $end
$var wire 1 x! inst1|ram~143_combout $end
$var wire 1 y! inst1|ram~46_q $end
$var wire 1 z! inst1|ram~79_combout $end
$var wire 1 {! inst1|ram~80_combout $end
$var wire 1 |! inst1|ram~166_combout $end
$var wire 1 }! inst1|ram~123_combout $end
$var wire 1 ~! inst1|ram~58_q $end
$var wire 1 !" inst1|ram~169_combout $end
$var wire 1 "" inst1|ram~129_combout $end
$var wire 1 #" inst1|ram~66_q $end
$var wire 1 $" inst1|ram~168_combout $end
$var wire 1 %" inst1|ram~127_combout $end
$var wire 1 &" inst1|ram~42_q $end
$var wire 1 '" inst1|ram~167_combout $end
$var wire 1 (" inst1|ram~125_combout $end
$var wire 1 )" inst1|ram~50_q $end
$var wire 1 *" inst1|ram~74_combout $end
$var wire 1 +" inst1|ram~75_combout $end
$var wire 1 ," inst1|ram~170_combout $end
$var wire 1 -" inst1|ram~131_combout $end
$var wire 1 ." inst1|ram~48_q $end
$var wire 1 /" inst1|ram~173_combout $end
$var wire 1 0" inst1|ram~137_combout $end
$var wire 1 1" inst1|ram~64_q $end
$var wire 1 2" inst1|ram~172_combout $end
$var wire 1 3" inst1|ram~135_combout $end
$var wire 1 4" inst1|ram~40_q $end
$var wire 1 5" inst1|ram~171_combout $end
$var wire 1 6" inst1|ram~133_combout $end
$var wire 1 7" inst1|ram~56_q $end
$var wire 1 8" inst1|ram~76_combout $end
$var wire 1 9" inst1|ram~77_combout $end
$var wire 1 :" inst1|ram~78_combout $end
$var wire 1 ;" inst1|ram~81_combout $end
$var wire 1 <" inst1|ram~92_combout $end
$var wire 1 =" inst1|ram~213_combout $end
$var wire 1 >" inst1|ram~69_q $end
$var wire 1 ?" inst1|ram~211_combout $end
$var wire 1 @" inst1|ram~53_q $end
$var wire 1 A" inst1|ram~212_combout $end
$var wire 1 B" inst1|ram~45_q $end
$var wire 1 C" inst1|ram~103_combout $end
$var wire 1 D" inst1|ram~210_combout $end
$var wire 1 E" inst1|ram~61_q $end
$var wire 1 F" inst1|ram~104_combout $end
$var wire 1 G" inst1|ram~214_combout $end
$var wire 1 H" inst1|ram~57_q $end
$var wire 1 I" inst1|ram~216_combout $end
$var wire 1 J" inst1|ram~41_q $end
$var wire 1 K" inst1|ram~215_combout $end
$var wire 1 L" inst1|ram~49_q $end
$var wire 1 M" inst1|ram~105_combout $end
$var wire 1 N" inst1|ram~217_combout $end
$var wire 1 O" inst1|ram~65_q $end
$var wire 1 P" inst1|ram~106_combout $end
$var wire 1 Q" inst1|ram~218_combout $end
$var wire 1 R" inst1|ram~51_q $end
$var wire 1 S" inst1|ram~221_combout $end
$var wire 1 T" inst1|ram~67_q $end
$var wire 1 U" inst1|ram~220_combout $end
$var wire 1 V" inst1|ram~43_q $end
$var wire 1 W" inst1|ram~219_combout $end
$var wire 1 X" inst1|ram~59_q $end
$var wire 1 Y" inst1|ram~107_combout $end
$var wire 1 Z" inst1|ram~108_combout $end
$var wire 1 [" inst1|ram~222_combout $end
$var wire 1 \" inst1|ram~55_q $end
$var wire 1 ]" inst1|ram~225_combout $end
$var wire 1 ^" inst1|ram~71_q $end
$var wire 1 _" inst1|ram~223_combout $end
$var wire 1 `" inst1|ram~63_q $end
$var wire 1 a" inst1|ram~224_combout $end
$var wire 1 b" inst1|ram~47_q $end
$var wire 1 c" inst1|ram~109_combout $end
$var wire 1 d" inst1|ram~110_combout $end
$var wire 1 e" inst1|ram~111_combout $end
$var wire 1 f" inst1|ram~112_combout $end
$var wire 1 g" inst1|ram~206_combout $end
$var wire 1 h" inst1|ram~11_q $end
$var wire 1 i" inst1|ram~209_combout $end
$var wire 1 j" inst1|ram~15_q $end
$var wire 1 k" inst1|ram~208_combout $end
$var wire 1 l" inst1|ram~9_q $end
$var wire 1 m" inst1|ram~207_combout $end
$var wire 1 n" inst1|ram~13_q $end
$var wire 1 o" inst1|ram~100_combout $end
$var wire 1 p" inst1|ram~101_combout $end
$var wire 1 q" inst1|ram~205_combout $end
$var wire 1 r" inst1|ram~23_q $end
$var wire 1 s" inst1|ram~202_combout $end
$var wire 1 t" inst1|ram~21_q $end
$var wire 1 u" inst1|ram~203_combout $end
$var wire 1 v" inst1|ram~19_q $end
$var wire 1 w" inst1|ram~204_combout $end
$var wire 1 x" inst1|ram~17_q $end
$var wire 1 y" inst1|ram~98_combout $end
$var wire 1 z" inst1|ram~99_combout $end
$var wire 1 {" inst1|ram~102_combout $end
$var wire 1 |" inst1|ram~194_combout $end
$var wire 1 }" inst1|ram~37_q $end
$var wire 1 ~" inst1|ram~195_combout $end
$var wire 1 !# inst1|ram~35_q $end
$var wire 1 "# inst1|ram~196_combout $end
$var wire 1 ## inst1|ram~33_q $end
$var wire 1 $# inst1|ram~93_combout $end
$var wire 1 %# inst1|ram~197_combout $end
$var wire 1 &# inst1|ram~39_q $end
$var wire 1 '# inst1|ram~94_combout $end
$var wire 1 (# inst1|ram~198_combout $end
$var wire 1 )# inst1|ram~27_q $end
$var wire 1 *# inst1|ram~201_combout $end
$var wire 1 +# inst1|ram~31_q $end
$var wire 1 ,# inst1|ram~199_combout $end
$var wire 1 -# inst1|ram~29_q $end
$var wire 1 .# inst1|ram~200_combout $end
$var wire 1 /# inst1|ram~25_q $end
$var wire 1 0# inst1|ram~95_combout $end
$var wire 1 1# inst1|ram~96_combout $end
$var wire 1 2# inst1|ram~97_combout $end
$var wire 1 3# inst1|ram~113_combout $end
$var wire 1 4# inst|count[0]~3_combout $end
$var wire 1 5# button_2~input_o $end
$var wire 1 6# inst|old_button2~q $end
$var wire 1 7# inst|process_0~2_combout $end
$var wire 1 8# inst|count[0]~0_combout $end
$var wire 1 9# inst|Selector25~0_combout $end
$var wire 1 :# inst|Selector26~4_combout $end
$var wire 1 ;# button_3~input_o $end
$var wire 1 <# inst|old_button3~q $end
$var wire 1 =# inst|process_0~1_combout $end
$var wire 1 ># inst|r_score~20_combout $end
$var wire 1 ?# inst|Selector25~1_combout $end
$var wire 1 @# inst|Selector25~2_combout $end
$var wire 1 A# inst|state.play1~q $end
$var wire 1 B# inst|Selector26~6_combout $end
$var wire 1 C# inst|Selector26~5_combout $end
$var wire 1 D# inst|state.play2~q $end
$var wire 1 E# inst|WideOr0~0_combout $end
$var wire 1 F# inst|count[0]~1_combout $end
$var wire 1 G# inst|count[2]~2_combout $end
$var wire 1 H# inst|count[0]~4_combout $end
$var wire 1 I# inst|count[2]~5_combout $end
$var wire 1 J# inst|count[2]~6_combout $end
$var wire 1 K# inst|count[4]~13_combout $end
$var wire 1 L# inst|r_score~7_combout $end
$var wire 1 M# inst|r_score~5_combout $end
$var wire 1 N# inst|r_score~6_combout $end
$var wire 1 O# inst|r_score~8_combout $end
$var wire 1 P# inst|r_score~9_combout $end
$var wire 1 Q# inst|r_score[0]~10_combout $end
$var wire 1 R# inst|Selector9~0_combout $end
$var wire 1 S# inst|r_score[0]~11 $end
$var wire 1 T# inst|r_score[1]~12_combout $end
$var wire 1 U# inst|Selector8~0_combout $end
$var wire 1 V# inst|r_score[1]~13 $end
$var wire 1 W# inst|r_score[2]~14_combout $end
$var wire 1 X# inst|Selector7~0_combout $end
$var wire 1 Y# inst|r_score[2]~15 $end
$var wire 1 Z# inst|r_score[3]~16_combout $end
$var wire 1 [# inst|Selector6~0_combout $end
$var wire 1 \# inst|Equal5~1_combout $end
$var wire 1 ]# inst|Equal5~0_combout $end
$var wire 1 ^# inst|r_score[3]~17 $end
$var wire 1 _# inst|r_score[4]~18_combout $end
$var wire 1 `# inst|Selector5~0_combout $end
$var wire 1 a# inst|Equal5~2_combout $end
$var wire 1 b# inst|Selector24~0_combout $end
$var wire 1 c# inst|state.play0~q $end
$var wire 1 d# inst|count[0]~7_combout $end
$var wire 1 e# inst|count[4]~8_combout $end
$var wire 1 f# inst|count[0]~9_combout $end
$var wire 1 g# inst|Equal3~2_combout $end
$var wire 1 h# inst|count[3]~12_combout $end
$var wire 1 i# dif[1]~input_o $end
$var wire 1 j# dif[0]~input_o $end
$var wire 1 k# inst9|Mux0~0_combout $end
$var wire 1 l# inst|dif[3]~0_combout $end
$var wire 1 m# inst|dif[3]~1_combout $end
$var wire 1 n# inst|Equal3~0_combout $end
$var wire 1 o# inst|Selector21~0_combout $end
$var wire 1 p# inst|state.gen0~q $end
$var wire 1 q# inst|state.gen1~q $end
$var wire 1 r# inst|state.gen2~q $end
$var wire 1 s# inst|Selector27~2_combout $end
$var wire 1 t# inst|state.cpu0~q $end
$var wire 1 u# inst|Selector28~0_combout $end
$var wire 1 v# inst|state.cpu1~q $end
$var wire 1 w# inst|Selector10~0_combout $end
$var wire 1 x# inst|Selector10~1_combout $end
$var wire 1 y# inst|r_sel_turn~q $end
$var wire 1 z# inst10~3_combout $end
$var wire 1 {# inst|Selector19~0_combout $end
$var wire 1 |# inst|state.game_over~9_combout $end
$var wire 1 }# inst|state.game_over~11_combout $end
$var wire 1 ~# inst|state.game_over~8_combout $end
$var wire 1 !$ inst|state.game_over~6_combout $end
$var wire 1 "$ inst|state.game_over~7_combout $end
$var wire 1 #$ inst|state.game_over~10_combout $end
$var wire 1 $$ inst|state.game_over~q $end
$var wire 1 %$ inst|Selector19~1_combout $end
$var wire 1 &$ inst|Selector19~2_combout $end
$var wire 1 '$ inst|Selector19~3_combout $end
$var wire 1 ($ inst|r_en_show~q $end
$var wire 1 )$ inst10~2_combout $end
$var wire 1 *$ inst11~0_combout $end
$var wire 1 +$ inst11~1_combout $end
$var wire 1 ,$ inst12~0_combout $end
$var wire 1 -$ inst12~1_combout $end
$var wire 1 .$ inst13~0_combout $end
$var wire 1 /$ inst13~1_combout $end
$var wire 1 0$ inst|count [4] $end
$var wire 1 1$ inst|count [3] $end
$var wire 1 2$ inst|count [2] $end
$var wire 1 3$ inst|count [1] $end
$var wire 1 4$ inst|count [0] $end
$var wire 1 5$ inst|dif [4] $end
$var wire 1 6$ inst|dif [3] $end
$var wire 1 7$ inst|dif [2] $end
$var wire 1 8$ inst|dif [1] $end
$var wire 1 9$ inst|dif [0] $end
$var wire 1 :$ inst2|r_lfsr [7] $end
$var wire 1 ;$ inst2|r_lfsr [6] $end
$var wire 1 <$ inst2|r_lfsr [5] $end
$var wire 1 =$ inst2|r_lfsr [4] $end
$var wire 1 >$ inst2|r_lfsr [3] $end
$var wire 1 ?$ inst2|r_lfsr [2] $end
$var wire 1 @$ inst2|r_lfsr [1] $end
$var wire 1 A$ inst|r_s_addr [4] $end
$var wire 1 B$ inst|r_s_addr [3] $end
$var wire 1 C$ inst|r_s_addr [2] $end
$var wire 1 D$ inst|r_s_addr [1] $end
$var wire 1 E$ inst|r_s_addr [0] $end
$var wire 1 F$ inst|r_score [4] $end
$var wire 1 G$ inst|r_score [3] $end
$var wire 1 H$ inst|r_score [2] $end
$var wire 1 I$ inst|r_score [1] $end
$var wire 1 J$ inst|r_score [0] $end
$var wire 1 K$ inst1|addr_reg [4] $end
$var wire 1 L$ inst1|addr_reg [3] $end
$var wire 1 M$ inst1|addr_reg [2] $end
$var wire 1 N$ inst1|addr_reg [1] $end
$var wire 1 O$ inst1|addr_reg [0] $end
$upscope $end
$upscope $end
$enddefinitions $end
#0
$dumpvars
0!
0"
0#
0$
0%
b0 &
1'
b100110 (
09"
0:"
0;"
0<"
1="
0>"
1?"
0@"
1A"
0B"
0C"
1D"
0E"
0F"
1G"
0H"
1I"
0J"
1K"
0L"
0M"
1N"
0O"
0P"
1Q"
0R"
1S"
0T"
1U"
0V"
1W"
0X"
0Y"
0Z"
1["
0\"
1]"
0^"
1_"
0`"
1a"
0b"
0c"
0d"
0e"
0f"
1g"
0h"
1i"
0j"
1k"
0l"
1m"
0n"
0o"
0p"
1q"
0r"
1s"
0t"
1u"
0v"
1w"
0x"
0y"
0z"
0{"
1|"
0}"
1~"
0!#
1"#
0##
0$#
1%#
0&#
0'#
1(#
0)#
1*#
0+#
1,#
0-#
1.#
0/#
00#
01#
12#
03#
14#
05#
06#
07#
18#
09#
1:#
0;#
0<#
0=#
1>#
0?#
0@#
0A#
1B#
0C#
0D#
0E#
0F#
1G#
0H#
0I#
1J#
0K#
1L#
0M#
0N#
1O#
1P#
0Q#
0R#
0S#
0T#
0U#
1V#
0W#
0X#
0Y#
0Z#
0[#
1\#
1]#
1^#
0_#
0`#
1a#
0b#
0c#
0d#
0e#
0f#
0g#
0h#
0i#
0j#
0k#
0l#
1m#
0n#
1o#
0p#
0q#
0r#
0s#
0t#
0u#
0v#
1w#
1x#
0y#
1z#
0{#
0|#
0}#
0~#
0!$
0"$
0#$
0$$
0%$
0&$
0'$
0($
0)$
0*$
0+$
0,$
0-$
0.$
0/$
04$
03$
02$
01$
00$
z9$
z8$
z7$
06$
05$
0@$
0?$
0>$
0=$
0<$
0;$
0:$
0E$
0D$
0C$
0B$
0A$
0J$
0I$
0H$
0G$
0F$
0O$
0N$
0M$
0L$
0K$
0)
0*
0+
0,
01
00
0/
0.
0-
x2
03
14
x5
16
17
18
09
0:
0;
0<
0=
0>
0?
0@
0A
0B
0C
1D
1E
0F
0G
0H
1I
0J
0K
0L
0M
0N
0O
0P
1Q
0R
0S
0T
0U
0V
0W
0X
0Y
0Z
1[
1\
0]
0^
0_
0`
0a
0b
1c
0d
1e
0f
0g
0h
0i
0j
1k
1l
0m
0n
1o
0p
0q
0r
0s
0t
0u
0v
0w
1x
0y
0z
0{
1|
0}
0~
0!!
1"!
0#!
0$!
0%!
0&!
0'!
1(!
0)!
0*!
0+!
1,!
0-!
0.!
0/!
10!
01!
02!
03!
14!
05!
06!
07!
08!
09!
1:!
0;!
0<!
0=!
1>!
0?!
0@!
0A!
1B!
0C!
0D!
0E!
1F!
0G!
0H!
0I!
0J!
0K!
1L!
0M!
0N!
0O!
1P!
0Q!
0R!
0S!
1T!
1U!
0V!
0W!
1X!
0Y!
0Z!
0[!
0\!
0]!
0^!
0_!
1`!
0a!
0b!
1c!
0d!
0e!
1f!
0g!
0h!
1i!
0j!
0k!
0l!
0m!
1n!
0o!
0p!
1q!
0r!
0s!
1t!
0u!
0v!
1w!
0x!
0y!
0z!
0{!
1|!
0}!
0~!
1!"
0""
0#"
1$"
0%"
0&"
1'"
0("
0)"
0*"
0+"
1,"
0-"
0."
1/"
00"
01"
12"
03"
04"
15"
06"
07"
08"
$end
#5000
1%
1B
1C
02
#10000
0%
0B
0C
12
#15000
1%
1B
1C
02
#20000
0'
0%
0D
0B
0E
0C
12
1l#
0G#
1T
0J#
#25000
1%
1B
1C
02
1y#
1p#
16$
1]
1J
1%$
1`
0[
1n#
1n
0l
1j
1h
1b
1_
0o#
0l#
1e#
1E#
1p
1S
1&$
0\
1f#
1J#
0T
0f#
#30000
0%
0B
0C
12
#35000
1%
1B
1C
02
1q#
0p#
1<$
1:$
1@$
1=$
1a
0]
1q
0`
0S
0Q
05"
02"
0/"
0,"
0'"
0$"
0!"
0|!
0w!
0t!
0q!
0n!
0i!
0f!
0c!
0`!
0X!
0T!
0P!
0L!
0F!
0B!
0>!
0:!
04!
00!
0,!
0(!
0"!
0|
0x
0o
1l
1d
0n
0h
1T
#40000
0%
0B
0C
12
#45000
1%
1B
1C
02
1r#
0q#
1r
0<$
1;$
0@$
1>$
0a
1o#
0E#
1[
1S
1Q
1V!
15"
12"
1/"
1,"
1'"
1$"
1!"
1|!
1w!
1t!
1q!
1n!
1i!
1f!
1c!
1`!
1X!
1T!
1P!
1L!
1F!
1B!
1>!
1:!
14!
10!
1,!
1(!
1"!
1|
1x
1o
0_
0.#
0,#
0*#
0(#
0%#
0"#
0~"
0|"
0w"
0u"
0s"
0q"
0m"
0k"
0i"
0g"
0a"
0_"
0]"
0["
0W"
0U"
0S"
0Q"
0N"
0K"
0I"
0G"
0D"
0A"
0?"
0="
1n
0l
0j
1f
0b
0J#
0T
1f#
#50000
0%
0B
0C
12
#55000
1%
1B
1C
02
0r#
1p#
14$
1W!
0o#
1E#
0[
1`
0f#
0]#
1W
1\!
1J#
0a#
1]!
1f#
0W
1N#
1M#
0L#
1^!
1_!
0z#
1<"
#60000
0%
0B
0C
12
#65000
1%
1B
1C
02
1q#
0p#
1a
0`
0S
0Q
1b
1T
1V
#70000
0%
0B
0C
12
#75000
1%
1B
1C
02
1r#
0q#
1<$
0;$
0:$
1?$
0=$
0a
1E$
1o#
0E#
1[
1S
1Q
05"
02"
0/"
0,"
0'"
0$"
0!"
0|!
0w!
0t!
0q!
0n!
0i!
0f!
0c!
0`!
0X!
0T!
0P!
0L!
0F!
0B!
0>!
0:!
04!
00!
0,!
0(!
0"!
0|
0x
0o
1_
1.#
1,#
1*#
1(#
1%#
1"#
1~"
1|"
1w"
1u"
1s"
1q"
1m"
1k"
1i"
1g"
1a"
1_"
1]"
1["
1W"
1U"
1S"
1Q"
1N"
1K"
1I"
1G"
1D"
1A"
1?"
1="
0n
1l
1h
0d
0b
1Y!
0U!
0J#
0T
0V
1Z!
0V!
0f#
1W
#80000
0%
0B
0C
12
#85000
1%
1B
1C
02
0r#
1p#
04$
1h"
13$
1O$
0o#
1E#
0[
1`
1f#
1p"
0\!
1J#
1{"
0]!
0f#
13#
0^!
1H#
0_!
0<"
0H#
#90000
0%
0B
0C
12
#95000
1%
1B
1C
02
1q#
0p#
1a
0`
0S
0Q
1b
1T
1t
#100000
0%
0B
0C
12
#105000
1%
1B
1C
02
1r#
0q#
1D$
0<$
1;$
1@$
0>$
1=$
0a
0E$
1o#
0E#
1[
1S
1Q
0Y!
1M!
15"
12"
1/"
1,"
1'"
1$"
1!"
1|!
1w!
1t!
1q!
1n!
1i!
1f!
1c!
1`!
1X!
1T!
1P!
1L!
1F!
1B!
1>!
1:!
14!
10!
1,!
1(!
1"!
1|
1x
1o
0_
0.#
0,#
0*#
0(#
0%#
0"#
0~"
0|"
0w"
0u"
0s"
0q"
0m"
0k"
0i"
0g"
0a"
0_"
0]"
0["
0W"
0U"
0S"
0Q"
0N"
0K"
0I"
0G"
0D"
0A"
0?"
0="
1n
0l
1j
0f
1d
0b
0J#
0T
0t
0Z!
1N!
1f#
#110000
0%
0B
0C
12
#115000
1%
1B
1C
02
0r#
1p#
14$
1O!
1N$
0O$
0o#
1E#
0[
1`
0f#
1X
0W
1]!
1e"
0p"
1J#
1Y
1^!
0{"
1f#
0Y
1W
1_!
03#
1<"
#120000
0%
0B
0C
12
#125000
1%
1B
1C
02
1q#
0p#
1a
0`
0S
0Q
1b
1T
1t
1V
#130000
0%
0B
0C
12
#135000
1%
1B
1C
02
1r#
0q#
1<$
0;$
1:$
0?$
1>$
0=$
0a
1E$
1o#
0E#
1[
1S
1Q
05"
02"
0/"
0,"
0'"
0$"
0!"
0|!
0w!
0t!
0q!
0n!
0i!
0f!
0c!
0`!
0X!
0T!
0P!
0L!
0F!
0B!
0>!
0:!
04!
00!
0,!
0(!
0"!
0|
0x
0o
1_
1.#
1,#
1*#
1(#
1%#
1"#
1~"
1|"
1w"
1u"
1s"
1q"
1m"
1k"
1i"
1g"
1a"
1_"
1]"
1["
1W"
1U"
1S"
1Q"
1N"
1K"
1I"
1G"
1D"
1A"
1?"
1="
0n
1l
0h
1f
0d
0b
1Q!
0M!
0J#
0T
0t
0V
1R!
0N!
0f#
1Y
0W
#140000
0%
0B
0C
12
#145000
1%
1B
1C
02
0r#
1p#
04$
1j"
12$
03$
1O$
0o#
1E#
0[
1`
1f#
1]#
1p"
0\#
10#
1$#
1y"
1o"
1f"
0e"
1:"
1\!
1J!
18!
1&!
1J#
1{"
0f"
0]!
0f#
13#
0^!
1H#
0_!
0<"
0H#
#150000
0%
0B
0C
12
#155000
1%
1B
1C
02
1q#
0p#
1a
0`
0S
0Q
1b
1T
1s
#160000
0%
0B
0C
12
#165000
1%
1B
1C
02
1r#
0q#
0D$
1C$
0<$
1;$
0@$
1?$
0>$
1=$
0a
0E$
1o#
0E#
1[
1S
1Q
0Q!
1G!
15"
12"
1/"
1,"
1'"
1$"
1!"
1|!
1w!
1t!
1q!
1n!
1i!
1f!
1c!
1`!
1X!
1T!
1P!
1L!
1F!
1B!
1>!
1:!
14!
10!
1,!
1(!
1"!
1|
1x
1o
0_
0.#
0,#
0*#
0(#
0%#
0"#
0~"
0|"
0w"
0u"
0s"
0q"
0m"
0k"
0i"
0g"
0a"
0_"
0]"
0["
0W"
0U"
0S"
0Q"
0N"
0K"
0I"
0G"
0D"
0A"
0?"
0="
1n
0l
0j
1h
0f
1d
0b
0J#
0T
0s
0R!
1H!
1f#
#170000
0%
0B
0C
12
#175000
1%
1B
1C
02
0r#
1p#
14$
1I!
1M$
0N$
0O$
0o#
1E#
0[
1`
0f#
0]#
1W
0{"
00#
1'#
0$#
1z"
0y"
0o"
1;"
0:"
1]!
19!
08!
0&!
11#
1K!
1'!
1J#
03#
01#
0'#
1{"
0z"
0p"
0;"
1^!
09!
0'!
1f#
0W
1z#
13#
0{"
1_!
0z#
03#
1<"
#180000
0%
0B
0C
12
#185000
1%
1B
1C
02
1q#
0p#
1a
0`
0S
0Q
1b
1T
1s
1V
#190000
0%
0B
0C
12
