simulation/qsim/genius.msim.vcd
$comment
	File created using the following command:
		vcd file genius.msim.vcd -direction
$end
$date
	Mon Jul 09 20:28:45 2018
$end
$version
	ModelSim Version 10.1d
$end
$timescale
	1ps
$end
$scope module genius_vlg_vec_tst $end
$var reg 1 ! clk $end
$var reg 2 " dif [1:0] $end
$var reg 1 # rst $end
$var reg 7 $ seed [6:0] $end
$var wire 1 % out [1] $end
$var wire 1 & out [0] $end
$var wire 1 ' sampler $end
$scope module i1 $end
$var wire 1 ( gnd $end
$var wire 1 ) vcc $end
$var wire 1 * unknown $end
$var tri1 1 + devclrn $end
$var tri1 1 , devpor $end
$var tri1 1 - devoe $end
$var wire 1 . out[1]~output_o $end
$var wire 1 / out[0]~output_o $end
$var wire 1 0 clk~input_o $end
$var wire 1 1 clk~inputclkctrl_outclk $end
$var wire 1 2 inst|state.init~feeder_combout $end
$var wire 1 3 rst~input_o $end
$var wire 1 4 rst~inputclkctrl_outclk $end
$var wire 1 5 inst|state.init~q $end
$var wire 1 6 inst|Add1~0_combout $end
$var wire 1 7 inst|Add1~10_combout $end
$var wire 1 8 inst|Add1~3 $end
$var wire 1 9 inst|Add1~4_combout $end
$var wire 1 : inst|Add1~14_combout $end
$var wire 1 ; inst|Add1~15_combout $end
$var wire 1 < inst|Add1~5 $end
$var wire 1 = inst|Add1~6_combout $end
$var wire 1 > inst|count[3]~1_combout $end
$var wire 1 ? inst|Selector8~0_combout $end
$var wire 1 @ inst|Add1~7 $end
$var wire 1 A inst|Add1~8_combout $end
$var wire 1 B inst|count[4]~0_combout $end
$var wire 1 C inst|Selector7~0_combout $end
$var wire 1 D dif[0]~input_o $end
$var wire 1 E inst|state.init~clkctrl_outclk $end
$var wire 1 F dif[1]~input_o $end
$var wire 1 G inst4|Mux0~0_combout $end
$var wire 1 H inst|Equal0~0_combout $end
$var wire 1 I inst|Equal0~2_combout $end
$var wire 1 J inst|Add1~11_combout $end
$var wire 1 K inst|Add1~1 $end
$var wire 1 L inst|Add1~2_combout $end
$var wire 1 M inst|Add1~12_combout $end
$var wire 1 N inst|Add1~13_combout $end
$var wire 1 O inst|Equal0~1_combout $end
$var wire 1 P inst|Selector3~0_combout $end
$var wire 1 Q inst|state.gen0~q $end
$var wire 1 R inst|state.gen1~q $end
$var wire 1 S inst|state.gen2~q $end
$var wire 1 T inst|state.game_over~0_combout $end
$var wire 1 U inst|state.game_over~q $end
$var wire 1 V inst|Selector2~0_combout $end
$var wire 1 W inst|WideOr5~0_combout $end
$var wire 1 X inst|WideOr5~0clkctrl_outclk $end
$var wire 1 Y seed[5]~input_o $end
$var wire 1 Z inst|r_l_sync_reset~combout $end
$var wire 1 [ seed[6]~input_o $end
$var wire 1 \ seed[1]~input_o $end
$var wire 1 ] seed[2]~input_o $end
$var wire 1 ^ seed[4]~input_o $end
$var wire 1 _ inst2|r_lfsr~2_combout $end
$var wire 1 ` inst2|r_lfsr[5]~feeder_combout $end
$var wire 1 a inst|state~13_combout $end
$var wire 1 b inst|r_l_en~combout $end
$var wire 1 c inst2|r_lfsr[5]~1_combout $end
$var wire 1 d seed[3]~input_o $end
$var wire 1 e inst2|r_lfsr~7_combout $end
$var wire 1 f inst2|r_lfsr~6_combout $end
$var wire 1 g inst2|r_lfsr~5_combout $end
$var wire 1 h seed[0]~input_o $end
$var wire 1 i inst2|r_lfsr~3_combout $end
$var wire 1 j inst2|r_lfsr[1]~feeder_combout $end
$var wire 1 k inst2|r_lfsr~4_combout $end
$var wire 1 l inst2|r_lfsr~0_combout $end
$var wire 1 m inst2|r_lfsr[6]~feeder_combout $end
$var wire 1 n inst1|ram~173_combout $end
$var wire 1 o inst|Selector13~0_combout $end
$var wire 1 p inst|r_s_we~1_combout $end
$var wire 1 q inst|r_s_we~0_combout $end
$var wire 1 r inst|r_s_we~combout $end
$var wire 1 s inst|Selector0~0_combout $end
$var wire 1 t inst|Selector12~0_combout $end
$var wire 1 u inst|Selector1~0_combout $end
$var wire 1 v inst1|ram~134_combout $end
$var wire 1 w inst1|ram~135_combout $end
$var wire 1 x inst1|ram~41_q $end
$var wire 1 y inst1|ram~172_combout $end
$var wire 1 z inst1|ram~132_combout $end
$var wire 1 { inst1|ram~133_combout $end
$var wire 1 | inst1|ram~57_q $end
$var wire 1 } inst1|ram~76_combout $end
$var wire 1 ~ inst1|ram~171_combout $end
$var wire 1 !! inst1|ram~130_combout $end
$var wire 1 "! inst1|ram~131_combout $end
$var wire 1 #! inst1|ram~49_q $end
$var wire 1 $! inst1|ram~174_combout $end
$var wire 1 %! inst1|ram~136_combout $end
$var wire 1 &! inst1|ram~137_combout $end
$var wire 1 '! inst1|ram~65_q $end
$var wire 1 (! inst1|ram~77_combout $end
$var wire 1 )! inst1|ram~169_combout $end
$var wire 1 *! inst1|ram~126_combout $end
$var wire 1 +! inst1|ram~127_combout $end
$var wire 1 ,! inst1|ram~43_q $end
$var wire 1 -! inst1|ram~168_combout $end
$var wire 1 .! inst1|ram~124_combout $end
$var wire 1 /! inst1|ram~125_combout $end
$var wire 1 0! inst1|ram~51_q $end
$var wire 1 1! inst1|ram~74_combout $end
$var wire 1 2! inst1|ram~170_combout $end
$var wire 1 3! inst1|ram~128_combout $end
$var wire 1 4! inst1|ram~129_combout $end
$var wire 1 5! inst1|ram~67_q $end
$var wire 1 6! inst1|ram~167_combout $end
$var wire 1 7! inst1|ram~122_combout $end
$var wire 1 8! inst1|ram~123_combout $end
$var wire 1 9! inst1|ram~59_q $end
$var wire 1 :! inst1|ram~75_combout $end
$var wire 1 ;! inst1|ram~78_combout $end
$var wire 1 <! inst1|ram~175_combout $end
$var wire 1 =! inst1|ram~138_combout $end
$var wire 1 >! inst1|ram~139_combout $end
$var wire 1 ?! inst1|ram~63_q $end
$var wire 1 @! inst1|ram~178_combout $end
$var wire 1 A! inst1|ram~144_combout $end
$var wire 1 B! inst1|ram~145_combout $end
$var wire 1 C! inst1|ram~71_q $end
$var wire 1 D! inst1|ram~176_combout $end
$var wire 1 E! inst1|ram~140_combout $end
$var wire 1 F! inst1|ram~141_combout $end
$var wire 1 G! inst1|ram~55_q $end
$var wire 1 H! inst1|ram~177_combout $end
$var wire 1 I! inst1|ram~142_combout $end
$var wire 1 J! inst1|ram~143_combout $end
$var wire 1 K! inst1|ram~47_q $end
$var wire 1 L! inst1|ram~79_combout $end
$var wire 1 M! inst1|ram~80_combout $end
$var wire 1 N! inst1|ram~164_combout $end
$var wire 1 O! inst1|ram~116_combout $end
$var wire 1 P! inst1|ram~117_combout $end
$var wire 1 Q! inst1|ram~61_q $end
$var wire 1 R! inst1|ram~165_combout $end
$var wire 1 S! inst1|ram~118_combout $end
$var wire 1 T! inst1|ram~119_combout $end
$var wire 1 U! inst1|ram~45_q $end
$var wire 1 V! inst1|ram~72_combout $end
$var wire 1 W! inst1|ram~166_combout $end
$var wire 1 X! inst1|ram~120_combout $end
$var wire 1 Y! inst1|ram~121_combout $end
$var wire 1 Z! inst1|ram~69_q $end
$var wire 1 [! inst1|ram~163_combout $end
$var wire 1 \! inst1|ram~114_combout $end
$var wire 1 ]! inst1|ram~115_combout $end
$var wire 1 ^! inst1|ram~53_q $end
$var wire 1 _! inst1|ram~73_combout $end
$var wire 1 `! inst1|ram~81_combout $end
$var wire 1 a! inst1|ram~194_combout $end
$var wire 1 b! inst1|ram~162_combout $end
$var wire 1 c! inst1|ram~39_q $end
$var wire 1 d! inst1|ram~191_combout $end
$var wire 1 e! inst1|ram~159_combout $end
$var wire 1 f! inst1|ram~35_q $end
$var wire 1 g! inst1|ram~192_combout $end
$var wire 1 h! inst1|ram~160_combout $end
$var wire 1 i! inst1|ram~37_q $end
$var wire 1 j! inst1|ram~193_combout $end
$var wire 1 k! inst1|ram~161_combout $end
$var wire 1 l! inst1|ram~33_q $end
$var wire 1 m! inst1|ram~89_combout $end
$var wire 1 n! inst1|ram~90_combout $end
$var wire 1 o! inst1|ram~182_combout $end
$var wire 1 p! inst1|ram~149_combout $end
$var wire 1 q! inst1|ram~31_q $end
$var wire 1 r! inst1|ram~179_combout $end
$var wire 1 s! inst1|ram~146_combout $end
$var wire 1 t! inst1|ram~29_q $end
$var wire 1 u! inst1|ram~181_combout $end
$var wire 1 v! inst1|ram~148_combout $end
$var wire 1 w! inst1|ram~25_q $end
$var wire 1 x! inst1|ram~180_combout $end
$var wire 1 y! inst1|ram~147_combout $end
$var wire 1 z! inst1|ram~27_q $end
$var wire 1 {! inst1|ram~82_combout $end
$var wire 1 |! inst1|ram~83_combout $end
$var wire 1 }! inst1|ram~186_combout $end
$var wire 1 ~! inst1|ram~153_combout $end
$var wire 1 !" inst1|ram~23_q $end
$var wire 1 "" inst1|ram~185_combout $end
$var wire 1 #" inst1|ram~152_combout $end
$var wire 1 $" inst1|ram~17_q $end
$var wire 1 %" inst1|ram~184_combout $end
$var wire 1 &" inst1|ram~151_combout $end
$var wire 1 '" inst1|ram~21_q $end
$var wire 1 (" inst1|ram~84_combout $end
$var wire 1 )" inst1|ram~183_combout $end
$var wire 1 *" inst1|ram~150_combout $end
$var wire 1 +" inst1|ram~19_q $end
$var wire 1 ," inst1|ram~85_combout $end
$var wire 1 -" inst1|ram~187_combout $end
$var wire 1 ." inst1|ram~154_combout $end
$var wire 1 /" inst1|ram~155_combout $end
$var wire 1 0" inst1|ram~13_q $end
$var wire 1 1" inst1|ram~190_combout $end
$var wire 1 2" inst1|ram~158_combout $end
$var wire 1 3" inst1|ram~15_q $end
$var wire 1 4" inst1|ram~189_combout $end
$var wire 1 5" inst1|ram~157_combout $end
$var wire 1 6" inst1|ram~9_q $end
$var wire 1 7" inst1|ram~188_combout $end
$var wire 1 8" inst1|ram~156_combout $end
$var wire 1 9" inst1|ram~11_q $end
$var wire 1 :" inst1|ram~86_combout $end
$var wire 1 ;" inst1|ram~87_combout $end
$var wire 1 <" inst1|ram~88_combout $end
$var wire 1 =" inst1|ram~91_combout $end
$var wire 1 >" inst1|ram~92_combout $end
$var wire 1 ?" inst1|ram~218_combout $end
$var wire 1 @" inst1|ram~30_q $end
$var wire 1 A" inst1|ram~215_combout $end
$var wire 1 B" inst1|ram~26_q $end
$var wire 1 C" inst1|ram~216_combout $end
$var wire 1 D" inst1|ram~28_q $end
$var wire 1 E" inst1|ram~217_combout $end
$var wire 1 F" inst1|ram~24_q $end
$var wire 1 G" inst1|ram~105_combout $end
$var wire 1 H" inst1|ram~106_combout $end
$var wire 1 I" inst1|ram~219_combout $end
$var wire 1 J" inst1|ram~10_q $end
$var wire 1 K" inst1|ram~221_combout $end
$var wire 1 L" inst1|ram~8_q $end
$var wire 1 M" inst1|ram~220_combout $end
$var wire 1 N" inst1|ram~12_q $end
$var wire 1 O" inst1|ram~107_combout $end
$var wire 1 P" inst1|ram~222_combout $end
$var wire 1 Q" inst1|ram~14_q $end
$var wire 1 R" inst1|ram~108_combout $end
$var wire 1 S" inst1|ram~109_combout $end
$var wire 1 T" inst1|ram~211_combout $end
$var wire 1 U" inst1|ram~20_q $end
$var wire 1 V" inst1|ram~214_combout $end
$var wire 1 W" inst1|ram~22_q $end
$var wire 1 X" inst1|ram~213_combout $end
$var wire 1 Y" inst1|ram~16_q $end
$var wire 1 Z" inst1|ram~212_combout $end
$var wire 1 [" inst1|ram~18_q $end
$var wire 1 \" inst1|ram~103_combout $end
$var wire 1 ]" inst1|ram~104_combout $end
$var wire 1 ^" inst1|ram~226_combout $end
$var wire 1 _" inst1|ram~38_q $end
$var wire 1 `" inst1|ram~224_combout $end
$var wire 1 a" inst1|ram~34_q $end
$var wire 1 b" inst1|ram~225_combout $end
$var wire 1 c" inst1|ram~32_q $end
$var wire 1 d" inst1|ram~110_combout $end
$var wire 1 e" inst1|ram~223_combout $end
$var wire 1 f" inst1|ram~36_q $end
$var wire 1 g" inst1|ram~111_combout $end
$var wire 1 h" inst1|ram~112_combout $end
$var wire 1 i" inst1|ram~203_combout $end
$var wire 1 j" inst1|ram~56_q $end
$var wire 1 k" inst1|ram~206_combout $end
$var wire 1 l" inst1|ram~64_q $end
$var wire 1 m" inst1|ram~204_combout $end
$var wire 1 n" inst1|ram~48_q $end
$var wire 1 o" inst1|ram~205_combout $end
$var wire 1 p" inst1|ram~40_q $end
$var wire 1 q" inst1|ram~97_combout $end
$var wire 1 r" inst1|ram~98_combout $end
$var wire 1 s" inst1|ram~199_combout $end
$var wire 1 t" inst1|ram~60_q $end
$var wire 1 u" inst1|ram~201_combout $end
$var wire 1 v" inst1|ram~44_q $end
$var wire 1 w" inst1|ram~200_combout $end
$var wire 1 x" inst1|ram~52_q $end
$var wire 1 y" inst1|ram~95_combout $end
$var wire 1 z" inst1|ram~202_combout $end
$var wire 1 {" inst1|ram~68_q $end
$var wire 1 |" inst1|ram~96_combout $end
$var wire 1 }" inst1|ram~99_combout $end
$var wire 1 ~" inst1|ram~196_combout $end
$var wire 1 !# inst1|ram~58_q $end
$var wire 1 "# inst1|ram~197_combout $end
$var wire 1 ## inst1|ram~42_q $end
$var wire 1 $# inst1|ram~93_combout $end
$var wire 1 %# inst1|ram~195_combout $end
$var wire 1 &# inst1|ram~50_q $end
$var wire 1 '# inst1|ram~198_combout $end
$var wire 1 (# inst1|ram~66_q $end
$var wire 1 )# inst1|ram~94_combout $end
$var wire 1 *# inst1|ram~207_combout $end
$var wire 1 +# inst1|ram~54_q $end
$var wire 1 ,# inst1|ram~210_combout $end
$var wire 1 -# inst1|ram~70_q $end
$var wire 1 .# inst1|ram~208_combout $end
$var wire 1 /# inst1|ram~62_q $end
$var wire 1 0# inst1|ram~209_combout $end
$var wire 1 1# inst1|ram~46_q $end
$var wire 1 2# inst1|ram~100_combout $end
$var wire 1 3# inst1|ram~101_combout $end
$var wire 1 4# inst1|ram~102_combout $end
$var wire 1 5# inst1|ram~113_combout $end
$var wire 1 6# inst|r_s_addr [4] $end
$var wire 1 7# inst|r_s_addr [3] $end
$var wire 1 8# inst|r_s_addr [2] $end
$var wire 1 9# inst|r_s_addr [1] $end
$var wire 1 :# inst|r_s_addr [0] $end
$var wire 1 ;# inst2|r_lfsr [7] $end
$var wire 1 <# inst2|r_lfsr [6] $end
$var wire 1 =# inst2|r_lfsr [5] $end
$var wire 1 ># inst2|r_lfsr [4] $end
$var wire 1 ?# inst2|r_lfsr [3] $end
$var wire 1 @# inst2|r_lfsr [2] $end
$var wire 1 A# inst2|r_lfsr [1] $end
$var wire 1 B# inst1|addr_reg [4] $end
$var wire 1 C# inst1|addr_reg [3] $end
$var wire 1 D# inst1|addr_reg [2] $end
$var wire 1 E# inst1|addr_reg [1] $end
$var wire 1 F# inst1|addr_reg [0] $end
$var wire 1 G# inst|dif [4] $end
$var wire 1 H# inst|dif [3] $end
$var wire 1 I# inst|dif [2] $end
$var wire 1 J# inst|dif [1] $end
$var wire 1 K# inst|dif [0] $end
$var wire 1 L# inst|count [4] $end
$var wire 1 M# inst|count [3] $end
$var wire 1 N# inst|count [2] $end
$var wire 1 O# inst|count [1] $end
$var wire 1 P# inst|count [0] $end
$upscope $end
$upscope $end
$enddefinitions $end
#0
$dumpvars
0!
b1 "
1#
b101110 $
0&
0%
x'
0(
1)
x*
1+
1,
1-
0.
0/
00
01
12
13
14
05
16
07
18
09
0:
0;
0<
0=
0>
0?
1@
0A
0B
0C
1D
0E
0F
1G
0H
0I
0J
0K
0L
0M
0N
0O
1P
0Q
0R
0S
0T
0U
0V
0W
0X
1Y
1Z
0[
1\
1]
0^
1_
1`
0a
xb
1c
1d
0e
0f
0g
0h
1i
1j
1k
0l
0m
1n
0o
1p
0q
xr
0s
0t
0u
xv
xw
0x
1y
xz
x{
0|
0}
1~
x!!
x"!
0#!
1$!
x%!
x&!
0'!
0(!
1)!
x*!
x+!
0,!
1-!
x.!
x/!
00!
01!
12!
x3!
x4!
05!
16!
x7!
x8!
09!
0:!
0;!
1<!
x=!
x>!
0?!
1@!
xA!
xB!
0C!
1D!
xE!
xF!
0G!
1H!
xI!
xJ!
0K!
0L!
0M!
1N!
xO!
xP!
0Q!
1R!
xS!
xT!
0U!
0V!
1W!
xX!
xY!
0Z!
1[!
x\!
x]!
0^!
0_!
0`!
1a!
xb!
0c!
1d!
xe!
0f!
1g!
xh!
0i!
1j!
xk!
0l!
0m!
0n!
1o!
xp!
0q!
1r!
xs!
0t!
1u!
xv!
0w!
1x!
xy!
0z!
0{!
0|!
1}!
x~!
0!"
1""
x#"
0$"
1%"
x&"
0'"
0("
1)"
x*"
0+"
0,"
1-"
x."
x/"
00"
11"
x2"
03"
14"
x5"
06"
17"
x8"
09"
0:"
0;"
0<"
0="
0>"
1?"
0@"
1A"
0B"
1C"
0D"
1E"
0F"
0G"
0H"
1I"
0J"
1K"
0L"
1M"
0N"
0O"
1P"
0Q"
0R"
0S"
1T"
0U"
1V"
0W"
1X"
0Y"
1Z"
0["
0\"
0]"
1^"
0_"
1`"
0a"
1b"
0c"
0d"
1e"
0f"
0g"
0h"
1i"
0j"
1k"
0l"
1m"
0n"
1o"
0p"
0q"
0r"
1s"
0t"
1u"
0v"
1w"
0x"
0y"
1z"
0{"
0|"
0}"
1~"
0!#
1"#
0##
0$#
1%#
0&#
1'#
0(#
0)#
1*#
0+#
1,#
0-#
1.#
0/#
10#
01#
02#
03#
04#
05#
x:#
x9#
x8#
x7#
x6#
0A#
0@#
0?#
0>#
0=#
0<#
0;#
0F#
0E#
0D#
0C#
0B#
zK#
zJ#
zI#
0H#
1G#
0P#
0O#
0N#
0M#
0L#
$end
#5000
1!
10
11
0'
xB#
xF#
xD#
xC#
xE#
x}"
xd"
x\"
xO"
xG"
x:"
x("
x{!
xm!
x;!
x2#
x$#
xy"
xq"
xS"
x<"
xV!
xL!
x1!
x}
x4#
xg"
x]"
xR"
xH"
x;"
x,"
x|!
xn!
x`!
x3#
x)#
x|"
xr"
xh"
x="
x_!
xM!
x:!
x(!
x5#
x>"
x/
x.
x&
x%
#10000
0!
00
01
1'
#15000
1!
10
11
0'
#20000
0#
0!
03
00
04
01
1'
#25000
1!
10
11
0'
1;#
1A#
1=#
1Q
15
1E
00#
0.#
0,#
0*#
0'#
0%#
0"#
0~"
0z"
0w"
0u"
0s"
0o"
0m"
0k"
0i"
0e"
0b"
0`"
0^"
0Z"
0X"
0V"
0T"
0P"
0M"
0K"
0I"
0E"
0C"
0A"
0?"
1a
0Z
0P
1b
1l
0i
1e
xc
0_
1c
1m
0j
0`
#30000
0!
00
01
1'
#35000
1!
10
11
0'
1R
1<#
0A#
1>#
0=#
0Q
0b
1W
07"
04"
01"
0-"
0)"
0%"
0""
0}!
0x!
0u!
0r!
0o!
0j!
0g!
0d!
0a!
0[!
0W!
0R!
0N!
0H!
0D!
0@!
0<!
06!
02!
0-!
0)!
0$!
0~
0y
0n
1_
0l
0k
1f
10#
1.#
1,#
1*#
1'#
1%#
1"#
1~"
1z"
1w"
1u"
1s"
1o"
1m"
1k"
1i"
1e"
1b"
1`"
1^"
1Z"
1X"
1V"
1T"
1P"
1M"
1K"
1I"
1E"
1C"
1A"
1?"
0e
0p
1X
0c
1`
0m
1r
08#
0:#
07#
06#
09#
0]!
0Y!
0P!
0J!
0F!
0B!
0>!
08!
04!
0/!
0+!
0&!
0"!
0{
0w
0."
0\!
0X!
0S!
0O!
0I!
0E!
0A!
0=!
07!
03!
0.!
0*!
0%!
0!!
0z
1v
0/"
0&"
0h!
0T!
0s!
02"
0~!
0b!
0p!
0y!
0e!
0*"
08"
0k!
0#"
0v!
15"
#40000
0!
00
01
1'
#45000
1!
10
11
0'
0R
1L"
0B#
0F#
0D#
0C#
0E#
1S
1b
0a
0W
1O"
0d"
0\"
0G"
0:"
0("
0{!
0m!
02#
0$#
0y"
0q"
0V!
0L!
01!
0}
1q
1P
1J
0X
1c
1R"
0g"
0]"
0H"
0;"
0,"
0|!
0n!
03#
0)#
0|"
0r"
0_!
0M!
0:!
0(!
0r
1S"
0<"
0}"
0;!
05"
1h"
0="
04#
0`!
15#
0>"
1/
0.
1&
0%
#50000
0!
00
01
1'
#55000
1!
10
11
0'
0<#
0;#
1?#
0>#
1=#
0S
1Q
1P#
17"
14"
11"
1-"
1)"
1%"
1""
1}!
1x!
1u!
1r!
1o!
1j!
1g!
1d!
1a!
1[!
1W!
1R!
1N!
1H!
1D!
1@!
1<!
16!
12!
1-!
1)!
1$!
1~
1y
1n
0_
1l
1g
0f
00#
0.#
0,#
0*#
0'#
0%#
0"#
0~"
0z"
0w"
0u"
0s"
0o"
0m"
0k"
0i"
0e"
0b"
0`"
0^"
0Z"
0X"
0V"
0T"
0P"
0M"
0K"
0I"
0E"
0C"
0A"
0?"
1e
0q
0P
0J
17
1p
1a
1t
1K
06
0`
1m
1J
1L
#60000
0!
00
01
1'
#65000
1!
10
11
0'
1R
1<#
1@#
0?#
1>#
0=#
0Q
0b
1W
07"
04"
01"
0-"
0)"
0%"
0""
0}!
0x!
0u!
0r!
0o!
0j!
0g!
0d!
0a!
0[!
0W!
0R!
0N!
0H!
0D!
0@!
0<!
06!
02!
0-!
0)!
0$!
0~
0y
0n
1_
1i
0g
1f
10#
1.#
1,#
1*#
1'#
1%#
1"#
1~"
1z"
1w"
1u"
1s"
1o"
1m"
1k"
1i"
1e"
1b"
1`"
1^"
1Z"
1X"
1V"
1T"
1P"
1M"
1K"
1I"
1E"
1C"
1A"
1?"
0e
0p
1X
0c
1`
1j
1r
1:#
15"
1*!
0v
18"
05"
#70000
0!
00
01
1'
#75000
1!
10
11
0'
0R
1J"
1F#
1S
1b
0a
0W
0R"
0O"
1q
1P
1N
07
0X
1c
0S"
1R"
0r
0J
0h"
1S"
08"
1h"
05#
0/
0&
15#
1/
1&
#80000
0!
00
01
1'
#85000
1!
10
11
0'
1A#
0@#
1?#
0>#
1=#
0S
1Q
1O#
0P#
0l
1k
0i
1g
0f
00#
0.#
0,#
0*#
0'#
0%#
0"#
0~"
0z"
0w"
0u"
0s"
0o"
0m"
0k"
0i"
0e"
0b"
0`"
0^"
0Z"
0X"
0V"
0T"
0P"
0M"
0K"
0I"
0E"
0C"
0A"
0?"
1e
0q
0P
0N
1M
1p
1a
1V
08
0L
0t
0K
16
0m
0j
1N
19
18
1L
09
#90000
0!
00
01
1'
#95000
1!
10
11
0'
1R
0<#
1;#
0A#
1@#
0?#
1>#
0Q
0b
1W
17"
14"
11"
1-"
1)"
1%"
1""
1}!
1x!
1u!
1r!
1o!
1j!
1g!
1d!
1a!
1[!
1W!
1R!
1N!
1H!
1D!
1@!
1<!
16!
12!
1-!
1)!
1$!
1~
1y
1n
0_
0k
1i
0g
1f
0p
1X
0c
0`
1j
1r
0:#
19#
18"
1."
0*!
1/"
08"
#100000
0!
00
01
1'
#105000
1!
10
11
0'
0R
10"
0F#
1E#
1S
1b
0a
0W
1;"
0R"
1q
1P
0M
1J
0X
1c
1<"
0S"
0r
1="
0h"
0/"
1>"
05#
1.
0/
1%
0&
#110000
0!
00
01
1'
#115000
1!
10
11
0'
0;#
1A#
0@#
1?#
0=#
0S
1Q
1P#
1k
0i
1g
10#
1.#
1,#
1*#
1'#
1%#
1"#
1~"
1z"
1w"
1u"
1s"
1o"
1m"
1k"
1i"
1e"
1b"
1`"
1^"
1Z"
1X"
1V"
1T"
1P"
1M"
1K"
1I"
1E"
1C"
1A"
1?"
0e
0q
0P
0N
1M
0J
17
1p
1a
1t
1K
06
0j
1N
1J
08
0L
19
#120000
0!
00
01
1'
#125000
1!
10
11
0'
1R
1;#
0A#
1@#
0>#
0Q
0b
1W
0k
1i
0f
0p
1X
0c
1j
1r
1:#
1/"
0."
1I!
0/"
12"
#130000
0!
00
01
1'
#135000
1!
10
11
0'
0R
1Q"
13"
1F#
1S
1b
0a
0W
1R"
1}"
1d"
1\"
1O"
1G"
1:"
1("
1{!
1m!
1;!
1q
1P
0M
1;
07
0X
1c
1S"
0r
0N
0J
1h"
02"
15#
1/
1&
#140000
0!
00
01
1'
#145000
1!
10
11
0'
0;#
1A#
0?#
0S
1Q
0O#
0P#
1N#
1k
0g
0q
0P
0;
1:
1p
1a
0V
18
1L
0t
0K
16
1u
1H
1<
09
1;
0<
19
0L
1=
0=
1>
0>
#150000
0!
00
01
1'
#155000
1!
10
11
0'
1R
1;#
0@#
0Q
0b
1W
1l
0i
0p
1X
0c
1m
0j
1r
18#
0:#
09#
12"
0I!
1!!
02"
1#"
#160000
0!
00
01
1'
#165000
1!
10
11
0'
0R
1Y"
1$"
0F#
1D#
0E#
1S
1b
0a
0W
14#
0}"
0d"
1H"
0G"
0:"
1,"
0{!
1n!
0m!
0;!
0h"
0S"
0<"
1g"
1]"
1|!
1`!
1q
1P
1J
0:
0X
1c
04#
0g"
0H"
0;"
1<"
0|!
0="
0n!
0`!
1h"
0r
05#
1="
0#"
0/
0&
15#
0>"
1/
0.
1&
0%
1>"
1.
1%
#170000
0!
00
01
1'
#175000
1!
10
11
0'
1<#
0A#
0S
1Q
1P#
07"
04"
01"
0-"
0)"
0%"
0""
0}!
0x!
0u!
0r!
0o!
0j!
0g!
0d!
0a!
0[!
0W!
0R!
0N!
0H!
0D!
0@!
0<!
06!
02!
0-!
0)!
0$!
0~
0y
0n
1_
0l
0k
0q
0P
0J
0;
1:
17
1p
1a
1t
1K
06
1`
0m
1;
1J
1L
#180000
0!
00
01
1'
#185000
1!
10
11
0'
1R
0<#
0;#
1=#
0Q
0b
1W
17"
14"
11"
1-"
1)"
1%"
1""
1}!
1x!
1u!
1r!
1o!
1j!
1g!
1d!
1a!
1[!
1W!
1R!
1N!
1H!
1D!
1@!
1<!
16!
12!
1-!
1)!
1$!
1~
1y
1n
0_
1l
00#
0.#
0,#
0*#
0'#
0%#
0"#
0~"
0z"
0w"
0u"
0s"
0o"
0m"
0k"
0i"
0e"
0b"
0`"
0^"
0Z"
0X"
0V"
0T"
0P"
0M"
0K"
0I"
0E"
0C"
0A"
0?"
1e
0p
1X
0c
0`
1m
1r
1:#
1#"
1.!
0!!
1*"
0#"
#190000
0!
00
01
1'
#195000
1!
10
11
0'
0R
1+"
1F#
1S
1b
0a
0W
0,"
0\"
0O"
0("
1q
1P
1N
0:
07
0X
1c
0<"
0]"
1,"
0r
0J
0="
0h"
1<"
0*"
1="
0>"
05#
0.
0/
0%
0&
1>"
1.
1%
#200000
0!
00
01
1'
#205000
1!
10
11
0'
1<#
1>#
0=#
0S
1Q
1O#
0P#
07"
04"
01"
0-"
0)"
0%"
0""
0}!
0x!
0u!
0r!
0o!
0j!
0g!
0d!
0a!
0[!
0W!
0R!
0N!
0H!
0D!
0@!
0<!
06!
02!
0-!
0)!
0$!
0~
0y
0n
1_
1f
10#
1.#
1,#
1*#
1'#
1%#
1"#
1~"
1z"
1w"
1u"
1s"
1o"
1m"
1k"
1i"
1e"
1b"
1`"
1^"
1Z"
1X"
1V"
1T"
1P"
1M"
1K"
1I"
1E"
1C"
1A"
1?"
0e
0q
0P
0N
1M
0;
1:
1p
1a
1V
08
0L
0t
0K
16
1`
1N
1;
1<
09
18
1L
1=
0<
19
1>
0=
0>
#210000
0!
00
01
1'
#215000
1!
10
11
0'
1R
1?#
0>#
1=#
0Q
0b
1W
1g
0f
00#
0.#
0,#
0*#
0'#
0%#
0"#
0~"
0z"
0w"
0u"
0s"
0o"
0m"
0k"
0i"
0e"
0b"
0`"
0^"
0Z"
0X"
0V"
0T"
0P"
0M"
0K"
0I"
0E"
0C"
0A"
0?"
1e
0p
1X
0c
1r
0:#
19#
1*"
1\!
0.!
1&"
0*"
#220000
0!
00
01
1'
#225000
1!
10
11
0'
0R
0F#
1E#
1S
1b
0a
0W
0R"
0,"
1;"
1q
1P
0M
1J
0:
0X
1c
0<"
0r
0="
0&"
0>"
0.
0%
#230000
0!
00
01
1'
#235000
1!
10
11
0'
1@#
0?#
1>#
0S
1Q
1P#
1i
0g
1f
0q
0P
0N
1M
0J
0;
1:
17
1p
1a
1t
1K
06
1j
1N
1;
1J
08
0L
1<
09
1=
1>
#240000
0!
00
01
1'
#245000
1!
10
11
0'
1R
1A#
0@#
1?#
0Q
0b
1W
0l
1k
0i
1g
0p
1X
0c
0m
0j
1r
1:#
1&"
0\!
1E!
0&"
1~!
#250000
0!
00
01
1'
#255000
1!
10
11
0'
0R
1F#
1S
1b
0a
0W
1}"
1d"
1\"
1R"
1O"
1G"
1:"
1,"
1("
1{!
1m!
1;!
1q
1P
0M
0:
07
0X
1c
1<"
0,"
0r
0N
0;
0J
1="
0<"
0~!
0="
1>"
1.
1%
0>"
0.
0%
#260000
0!
00
01
1'
#265000
1!
10
11
0'
0<#
1;#
0A#
1@#
0S
1Q
0O#
0P#
1M#
0N#
17"
14"
11"
1-"
1)"
1%"
1""
1}!
1x!
1u!
1r!
1o!
1j!
1g!
1d!
1a!
1[!
1W!
1R!
1N!
1H!
1D!
1@!
1<!
16!
12!
1-!
1)!
1$!
1~
1y
1n
0_
0k
1i
0q
0P
1p
1a
0V
18
1L
0t
0K
16
1s
1?
0@
0=
0u
0H
0<
19
0`
1j
09
0L
1A
0>
1@
1=
1B
0A
1>
0B
#270000
0!
00
01
1'
#275000
1!
10
11
0'
1R
0;#
1A#
0=#
0Q
0b
1W
1k
10#
1.#
1,#
1*#
1'#
1%#
1"#
1~"
1z"
1w"
1u"
1s"
1o"
1m"
1k"
1i"
1e"
1b"
1`"
1^"
1Z"
1X"
1V"
1T"
1P"
1M"
1K"
1I"
1E"
1C"
1A"
1?"
0e
0p
1X
0c
1r
08#
0:#
17#
09#
1~!
0E!
1z
0~!
1v!
#280000
0!
00
01
1'
